[{
"id":"1",
    "ano": "2016",
    "banca": "UFMT",
    "orgao": "DPE-MT",
    "disciplina": "-",
    "prova": "Defensor Público",
    "assuntos": "-",
    "text": "O princípio da insignificância ou da bagatela exclui a",
    "correctId": "2",
    "image": "",
    "fonteImage": "Internet",
    "respostaEscolhida": "999",
    "options": [{
        "id": "0",
        "text": "a) Punibilidade."
    }, {
        "id": "1",
        "text": "b) Executividade."
    }, {
        "id": "2",
        "text": "c) Tipicidade material. "
    }, {
        "id": "3",
        "text": "d) Ilicitude formal."
    }, {
        "id": "4",
        "text": "e) Culpabilidade"
    }]
},
{
    "id":"2",
    "ano": "2016",
    "banca": "CESPE",
    "orgao": "TRT - 8ª Região (PA e AP)",
    "disciplina": "-",
    "prova": "Analista Judiciário - Área Judiciária",
    "assuntos": "-",
    "text": "Assinale a opção correta, considerando a lei e a jurisprudência dos tribunais superiores. ",
    "correctId": "1",
    "image": "",
    "fonteImage": "",
    "respostaEscolhida": "999",
    "options": [{
        "id": "0",
        "text": "a) A conduta de vender ou expor à venda CDs ou DVDs contendo gravações de músicas, filmes ou shows não configura crime de violação de direito autoral, por ser prática amplamente tolerada e estimulada pela procura dos consumidores desses produtos"
    }, {
        "id": "1",
        "text": "b) Na aplicação dos princípios da insignificância e da lesividade, as condutas que produzam um grau mínimo de resultado lesivo devem ser desconsideradas como delitos e, portanto, não ensejam a aplicação de sanções penais aos seus agentes. "
    }, {
        "id": "2",
        "text": "c) O uso de revólver de brinquedo no crime de roubo justifica a incidência da majorante prevista no Código Penal, por intimidar a vítima e desestimular sua reação. "
    }, {
        "id": "3",
        "text": "d) A idade da vítima é um dado irrelevante na dosimetria da pena do crime de homicídio doloso. "
    }, {
        "id": "4",
        "text": "e) Para a configuração dos crimes contra a honra, exige-se somente o dolo genérico, desconsiderando-se a existência de intenção, por parte do agente, de ofender a honra da vítima."
    }]
},
{
    "id":"3",
    "ano": "2015",
    "banca": "CESPE",
    "orgao": "TCE-RN",
    "disciplina": "-",
    "prova": "Inspetor - Administração, Contabilidade, Direito ou Economia - Cargo 3",
    "assuntos": "-",
    "text": "Acerca do concurso de pessoas e dos princípios de direito penal, julgue o item seguinte. Segundo o princípio da intervenção mínima, o direito penal somente deverá cuidar da proteção dos bens mais relevantes e imprescindíveis à vida social.",
    "correctId": "0",
    "image": "",
    "fonteImage": "",
    "respostaEscolhida": "999",
    "options": [{
        "id": "0",
        "text": "Certo"
    }, {
        "id": "1",
        "text": "Errado"
    }]
},
{
    "id":"4",
    "ano": "2015",
    "banca": "CESPE",
    "orgao": "AGU",
    "disciplina": "-",
    "prova": "Advogado da União",
    "assuntos": "-",
    "text": "Acerca da aplicação da lei penal, do conceito analítico de crime, da exclusão de ilicitude e da imputabilidade penal, julgue o item que se segue. A legítima defesa é causa de exclusão da ilicitude da conduta, mas não é aplicável caso o agente tenha tido a possibilidade de fugir da agressão injusta e tenha optado livremente pelo seu enfrentamento.",
    "correctId": "1",
    "image": "",
    "fonteImage": "",
    "respostaEscolhida": "999",
    "options": [{
        "id": "0",
        "text": "Certo"
    }, {
        "id": "1",
        "text": "Errado"
    }]
},
{
    "id":"5",
    "ano": "2014",
    "banca": "FCC",
    "orgao": "TRF - 3ª REGIÃO",
    "disciplina": "-",
    "prova": "Técnico Judiciário - Área Administrativa",
    "assuntos": "-",
    "text": "Não há crime sem",
    "correctId": "3",
    "image": "",
    "fonteImage": "",
    "respostaEscolhida": "999",
    "options": [{
        "id": "0",
        "text": "a) dolo."
    }, {
        "id": "1",
        "text": "b) resultado naturalístico."
    }, {
        "id": "2",
        "text": "c)  imprudência."
    }, {
        "id": "3",
        "text": "d) conduta."
    }, {
        "id": "4",
        "text": "e) lesão."
    }]
},
{
    "id":"6",
    "ano": "2013",
    "banca": "FCC",
    "orgao": "TJ-PE",
    "disciplina": "-",
    "prova": "Titular de Serviços de Notas e de Registros",
    "assuntos": "-",
    "text": "Na estrutura analítica do crime, o juízo da culpabilidade presta-se para avaliar a",
    "correctId": "2",
    "image": "",
    "fonteImage": "",
    "respostaEscolhida": "999",
    "options": [{
        "id": "0",
        "text": "a) prática da conduta"
    }, {
        "id": "1",
        "text": "b) contrariedade da conduta ao direito"
    }, {
        "id": "2",
        "text": "c) reprovabilidade da conduta."
    }, {
        "id": "3",
        "text": "d) existência do injusto penal."
    }, {
        "id": "4",
        "text": "e)  ilicitude da conduta."
    }]
},
{
    "id":"7",
    "ano": "2013",
    "banca": "CESPE",
    "orgao": "TJ-DFT",
    "disciplina": "-",
    "prova": "Técnico Judiciário - Área Administrativa",
    "assuntos": "-",
    "text": "Considera-se crime toda ação ou omissão típica, antijurídica e culpável.",
    "correctId": "0",
    "image": "",
    "fonteImage": "",
    "respostaEscolhida": "999",
    "options": [{
        "id": "0",
        "text": "Certo"
    }, {
        "id": "1",
        "text": "Errado"
    }]
},
{
    "id":"8",
    "ano": "2014",
    "banca": "FCC",
    "orgao": "TJ-AP",
    "disciplina": "-",
    "prova": "Técnico Judiciário - Área Judiciária e Administrativa",
    "assuntos": "-",
    "text": "Com relação à aplicação da lei penal, é INCORRETO afirmar: ",
    "correctId": "2",
    "image": "",
    "fonteImage": "",
    "respostaEscolhida": "999",
    "options": [{
        "id": "0",
        "text": "a) Não há crime sem lei anterior que o defina. Não há pena sem prévia cominação legal. "
    }, {
        "id": "1",
        "text": "b) A lei excepcional ou temporária, embora decorrido o período de sua duração ou cessadas as circunstâncias que a determinaram, aplica-se ao fato praticado durante sua vigência. "
    }, {
        "id": "2",
        "text": "c) Pode-se ser punido por fato que lei posterior deixe de considerar crime, se já houver sentença penal definitiva."
    }, {
        "id": "3",
        "text": "d)    A pena cumprida no estrangeiro atenua a pena imposta no Brasil pelo mesmo crime, quando diversas, ou nela é computada, quando idênticas."
    }, {
        "id": "4",
        "text": "e) Considera-se praticado o crime no momento da ação ou omissão, ainda que outro seja o momento de seu resultado."
    }]
}]